{
  "images" : [
    {
      "idiom" : "universal",
      "scale" : "1x"
    },
    {
      "idiom" : "universal",
      "scale" : "2x"
    },
    {
      "idiom" : "universal",
      "scale" : "3x"
    },
    {
      "idiom" : "iphone",
      "filename" : "reston_app_icons_ios_120@1x.png",
      "scale" : "1x"
    },
    {
      "idiom" : "iphone",
      "filename" : "reston_app_icons_ios_120@2x.png",
      "scale" : "2x"
    },
    {
      "idiom" : "iphone",
      "filename" : "reston_app_icons_ios_120@3x.png",
      "scale" : "3x"
    }
  ],
  "info" : {
    "version" : 1,
    "author" : "xcode"
  }
}